{
  "title": "A Series of Unfortunate Events",
  "status": "finished",
  "wikipedia": "https://en.wikipedia.org/wiki/A_Series_of_Unfortunate_Events_(TV_series)",
  "card": "/static/img/a-series-of-unfortunate-events.jpg",
  "currentSeasonNumber": 3,
  "numberOfSeasons": 3
}
