{
  "wikipedia": "https://en.wikipedia.org/wiki/Avatar:_The_Last_Airbender_(2024_TV_series)",
  "currentSeasonNumber": 1,
  "numberOfSeasons": 1,
  "title": "Avatar: The Last Airbender (2024)",
  "status": "waiting",
  "card": "https://images.bauerhosting.com/empire/2024/02/airbender-3.png?ar=16%3A9&fit=crop&crop=top&auto=format&w=1440&q=80"
}