{
  "title": "iZombie",
  "status": "finished",
  "wikipedia": "https://en.wikipedia.org/wiki/IZombie_(TV_series)",
  "card": "/static/img/izombie.jpg",
  "currentSeasonNumber": 5,
  "numberOfSeasons": 5
}
