{
  "wikipedia": "https://en.wikipedia.org/wiki/Mystery_Lab",
  "currentSeasonNumber": 1,
  "numberOfSeasons": 1,
  "title": "Mystery Lab",
  "status": "wanting",
  "card": "/static/img/eeju9cdxkaes4-x.jpg"
}
