{
  "title": "Pokémon",
  "status": "waiting",
  "wikipedia": "https://en.wikipedia.org/wiki/Pok%C3%A9mon_(anime)",
  "card": "/static/img/pokémon.jpg",
  "currentSeasonNumber": 25,
  "numberOfSeasons": 25
}