{
  "wikipedia": "https://en.wikipedia.org/wiki/Sweet_Home_(TV_series)",
  "currentSeasonNumber": 3,
  "numberOfSeasons": 3,
  "title": "Sweet Home",
  "status": "finished",
  "card": "https://bloody-disgusting.com/wp-content/uploads/2020/12/Sweet-Home-Netflix.jpg"
}