{
  "wikipedia": "https://en.wikipedia.org/wiki/The_Simpsons",
  "currentSeasonNumber": 10,
  "numberOfSeasons": 34,
  "title": "The Simpsons",
  "status": "watching",
  "card": "https://whatsondisneyplus.com/wp-content/uploads/2020/07/the-simpsons-scaled.jpg"
}