{
  "wikipedia": "https://en.wikipedia.org/wiki/The_Witcher:_Blood_Origin",
  "currentSeasonNumber": 1,
  "numberOfSeasons": 1,
  "title": "The Witcher: Blood Origin",
  "status": "waiting",
  "nextSeasonDate": "",
  "card": "https://news.newonnetflix.info/wp-content/uploads/2021/12/the-witcher-blood-origin-logo.jpeg"
}