{
  "wikipedia": "https://en.wikipedia.org/wiki/The_Irregulars",
  "currentSeasonNumber": 1,
  "numberOfSeasons": 1,
  "title": "The Irregulars",
  "status": "cancelled",
  "card": "https://variety.com/wp-content/uploads/2021/03/Irregulars_Vertical_Main_sRGB-1.jpeg"
}
